Computational Rhetorics - Wk 06: Tracking ngrams in TC Research
…
Code
tc_bigrams <- raw_data %>%
  unnest_tokens(bigram, text, token = "ngrams", n = 2) %>%
  filter(!is.na(bigram))

Notice that we’ve transformed our 2002 articles into 227,304 bigrams.

We can then count the most common bigrams in the dataset

Code
tc_bigrams %>%
  count(bigram, sort = TRUE)

# A tibble: 105,848 × 2
   bigram                      n
   <chr>                   <int>
 1 of the                   1232
 2 technical communication  1197
 3 in the                    960
 4 this article              883
 5 of technical              570
 6 and the                   512
 7 as a                      435
 8 technical writing         427
 9 to the                    424
10 on the                    395
# ℹ 105,838 more rows
…
# filter to keep only rows where both word1 and word2 are not stopwords
bigrams_filtered <- bigrams_separated %>%
  filter(!word1 %in% stop_words$word) %>%
  filter(!word2 %in% stop_words$word)

# new bigram counts
bigram_counts <- bigrams_filtered %>%
  count(word1, word2, sort = TRUE)

bigram_counts

# A tibble: 39,418 × 3
   word1        word2             n
   <chr>        <chr>         <int>
 1 technical    communication  1197
 2 technical    writing         427
 3 technical    communicators   380
 4 author       copyright       248
 5 professional communication   241
 6 writing      communication   237
 7 sage         publications    212
 8 multiple     sites           182
 9 copyright    holder's        155
10 holder's     express         146
# ℹ 39,408 more rows
…
# add custom stopwords to filter process
bigrams_filtered <- bigrams_separated %>%
  filter(!word1 %in% stop_words$word) %>%
  filter(!word2 %in% stop_words$word)%>%
  filter(!word1 %in% custom_stopwords) %>%
  filter(!word2 %in% custom_stopwords)

# new bigram counts
bigram_counts <- bigrams_filtered %>%
  count(word1, word2, sort = TRUE)

bigram_counts

# A tibble: 39,374 × 3
   word1        word2             n
   <chr>        <chr>         <int>
 1 technical    communication  1197
 2 technical    writing         427
 3 technical    communicators   380
 4 professional communication   241
 5 writing      communication   237
 6 multiple     sites           182
 7 social       media           135
 8 user         experience      102
 9 social       justice          94
10 email        articles         92
# ℹ 39,364 more rows

Now we can reunite our two columns into a single bigram column

Code
bigrams_united <- bigrams_filtered %>%
  unite(bigram, word1, word2, sep = " ")

bigrams_united

# A tibble: 58,563 × 7
   source_title        author_full_names article_title abstract publication_year
   <chr>               <chr>             <chr>         <chr>               <dbl>
 1 JOURNAL OF BUSINES… Wickman, Chad     Genre and Me… The use…             2023
 2 JOURNAL OF BUSINES… Wickman, Chad     Genre and Me… The use…             2023
 3 JOURNAL OF BUSINES… Wickman, Chad     Genre and Me… The use…             2023
 4 JOURNAL OF BUSINES… Wickman, Chad     Genre and Me… The use…             2023
 5 JOURNAL OF BUSINES… Wickman, Chad     Genre and Me… The use…             2023
 6 JOURNAL OF BUSINES… Wickman, Chad     Genre and Me… The use…             2023
 7 JOURNAL OF BUSINES… Wickman, Chad     Genre and Me… The use…             2023
 8 JOURNAL OF BUSINES… Wickman, Chad     Genre and Me… The use…             2023
 9 JOURNAL OF BUSINES… Wickman, Chad     Genre and Me… The use…             2023
10 JOURNAL OF BUSINES… Wickman, Chad     Genre and Me… The use…             2023
# ℹ 58,553 more rows
# ℹ 2 more variables: abbreviation <chr>, bigram <chr>
…
tc_trigrams %>%
  count(trigram, sort = TRUE)

# A tibble: 22,185 × 2
   trigram                               n
   <chr>                             <int>
 1 technical writing communication     235
 2 professional communication tpc       72
 3 user centered design                 37
 4 original published version           31
 5 tactical technical communication     31
 6 technical communication classroom    30
 7 technical communication research     29
 8 technical communication programs     24
 9 covid 19 pandemic                    22
10 user experience design               20
# ℹ 22,175 more rows
…
Some other exploratory analyses

TF-IDF

We can use term frequency inverse document frequency (TF-IDF). Similar to “keyness” in Quanteda, tf-idf can help us identify ngrams that are distinctive of a particular subset of the corpus.

Code
bigram_tf_idf <- bigrams_united %>%
  count(abbreviation, bigram) %>%
  bind_tf_idf(bigram, abbreviation, n) %>%
  arrange(desc(tf_idf))

bigram_tf_idf

# A tibble: 43,753 × 6
   abbreviation bigram                      n      tf   idf  tf_idf
   <chr>        <chr>                   <int>   <dbl> <dbl>   <dbl>
 1 JTWC         multiple sites            182 0.0135  1.61  0.0217 
 2 JTWC         writing communication     235 0.0174  0.916 0.0160 
 3 JTWC         email articles             92 0.00683 1.61  0.0110 
 4 JTWC         copy users                 46 0.00342 1.61  0.00550
 5 JTWC         original published         36 0.00267 1.61  0.00430
 6 JTWC         editor's desk              31 0.00230 1.61  0.00370
 7 JTWC         published version          31 0.00230 1.61  0.00370
 8 CDQ          communication design       60 0.00624 0.511 0.00319
 9 CDQ          communication designers    19 0.00197 1.61  0.00318
10 CDQ          university press           12 0.00125 1.61  0.00201
# ℹ 43,743 more rows
…
Code
library(igraph)

bigram_counts

# A tibble: 39,374 × 3
   word1        word2             n
   <chr>        <chr>         <int>
 1 technical    communication  1197
 2 technical    writing         427
 3 technical    communicators   380
 4 professional communication   241
 5 writing      communication   237
 6 multiple     sites           182
 7 social       media           135
 8 user         experience      102
 9 social       justice          94
10 email        articles         92
# ℹ 39,364 more rows
…
